FIFO_v2/fifo_waves.vcd
$date
	Wed Jul 22 18:19:00 2026
$end
$version
	Icarus Verilog
$end
$timescale
	1fs
$end
$scope module tb_async_fifo $end
$var wire 1 ! full $end
$var wire 1 " empty $end
$var wire 8 # data_out [7:0] $end
$var reg 8 $ data_in [7:0] $end
$var reg 8 % expected_data [7:0] $end
$var reg 1 & rd_clk $end
$var reg 1 ' rd_en $end
$var reg 1 ( rd_en_d1 $end
$var reg 1 ) rd_rst $end
$var reg 1 * wr_clk $end
$var reg 1 + wr_en $end
$var reg 1 , wr_rst $end
$var integer 32 - errors [31:0] $end
$var integer 32 . i [31:0] $end
$var integer 32 / reads_completed [31:0] $end
$scope module dut $end
$var wire 8 0 data_in [7:0] $end
$var wire 8 1 data_out [7:0] $end
$var wire 1 & rd_clk $end
$var wire 1 ' rd_en $end
$var wire 1 2 rd_en_safe $end
$var wire 5 3 rd_ptr_gray_next [4:0] $end
$var wire 1 ) rd_rst $end
$var wire 1 * wr_clk $end
$var wire 1 + wr_en $end
$var wire 1 4 wr_en_safe $end
$var wire 5 5 wr_ptr_gray_next [4:0] $end
$var wire 1 , wr_rst $end
$var wire 5 6 wr_ptr_bin_next [4:0] $end
$var wire 5 7 rd_ptr_bin_next [4:0] $end
$var wire 1 8 full_val $end
$var wire 1 9 empty_val $end
$var reg 1 " empty $end
$var reg 1 ! full $end
$var reg 5 : rd_ptr_bin [4:0] $end
$var reg 5 ; rd_ptr_gray [4:0] $end
$var reg 5 < rd_ptr_gray_sync1 [4:0] $end
$var reg 5 = rd_ptr_gray_sync2 [4:0] $end
$var reg 1 > rd_rst_sync1 $end
$var reg 1 ? rd_rst_sync2 $end
$var reg 8 @ sim_dout [7:0] $end
$var reg 5 A wr_ptr_bin [4:0] $end
$var reg 5 B wr_ptr_gray [4:0] $end
$var reg 5 C wr_ptr_gray_sync1 [4:0] $end
$var reg 5 D wr_ptr_gray_sync2 [4:0] $end
$var reg 1 E wr_rst_sync1 $end
$var reg 1 F wr_rst_sync2 $end
$upscope $end
$scope begin BURST_WRITE_LOOP $end
$upscope $end
$upscope $end
$enddefinitions $end
#0
$dumpvars
1F
1E
b0 D
b0 C
b0 B
b0 A
bx @
1?
1>
b0 =
b0 <
b0 ;
b0 :
19
08
b0 7
b0 6
b0 5
04
b0 3
02
bx 1
b0 0
b0 /
bx .
b0 -
1,
0+
0*
1)
0(
0'
0&
b0 %
b0 $
bx #
1"
0!
$end
#2000000
1&
#4000000
0&
#6000000
1&
#8000000
0&
#10000000
1&
#12000000
0&
#14000000
1&
#16000000
0&
#18000000
1&
#20000000
0&
#22000000
1&
#24000000
0&
#26000000
1&
#28000000
0&
#30000000
1&
#32000000
0&
#34000000
1&
#36000000
0&
#38000000
1&
#40000000
0&
#42000000
1&
#44000000
0&
#46000000
1&
#48000000
0&
#50000000
1&
#52000000
0&
#54000000
1&
#56000000
0&
#58000000
1&
#60000000
0&
#62000000
1&
#64000000
0&
#66000000
1&
#68000000
0&
#70000000
1&
#72000000
0&
#74000000
1&
#76000000
0&
#78000000
1&
#80000000
0&
#82000000
1&
#84000000
0&
#86000000
1&
#88000000
0&
#90000000
1&
#92000000
0&
#94000000
1&
#96000000
0&
#98000000
1&
#100000000
0&
#102000000
1&
#104000000
0&
#106000000
1&
#108000000
0&
#110000000
1&
#112000000
0&
#114000000
1&
#116000000
0&
#118000000
1&
#120000000
0&
#122000000
1&
#124000000
0&
#126000000
1&
#128000000
0&
#130000000
1&
#132000000
0&
#134000000
1&
#136000000
0&
#138000000
1&
#140000000
0&
#142000000
1&
#144000000
0&
#146000000
1&
#148000000
0&
#150000000
1&
#152000000
0&
#154000000
1&
#156000000
0&
#158000000
1&
#160000000
0&
#162000000
1&
#164000000
0&
#166000000
1&
#168000000
0&
#170000000
1&
#172000000
0&
#174000000
1&
#176000000
0&
#178000000
1&
#180000000
0&
#182000000
1&
#184000000
0&
#186000000
1&
#188000000
0&
#190000000
1&
#192000000
0&
#194000000
1&
#196000000
0&
#198000000
1&
#200000000
0&
#202000000
1&
#204000000
0&
#206000000
1&
#208000000
0&
#210000000
1&
#212000000
0&
#214000000
1&
#216000000
0&
#218000000
1&
#220000000
0&
#222000000
1&
#224000000
0&
#226000000
1&
#228000000
0&
#230000000
1&
#232000000
0&
#234000000
1&
#236000000
0&
#238000000
1&
#240000000
0&
#242000000
1&
#244000000
0&
#246000000
1&
#248000000
0&
#250000000
0>
0E
1&
0)
0,
1*
#252000000
0&
#254000000
0?
1&
#256000000
0&
#258000000
1&
#260000000
0&
#262000000
1&
#264000000
0&
#266000000
1&
#268000000
0&
#270000000
1&
#272000000
0&
#274000000
1&
#276000000
0&
#278000000
1&
#280000000
0&
#282000000
1&
#284000000
0&
#286000000
1&
#288000000
0&
#290000000
1&
#292000000
0&
#294000000
1&
#296000000
0&
#298000000
1&
#300000000
0&
#302000000
1&
#304000000
0&
#306000000
1&
#308000000
0&
#310000000
1&
#312000000
0&
#314000000
1&
#316000000
0&
#318000000
1&
#320000000
0&
#322000000
1&
#324000000
0&
#326000000
1&
#328000000
0&
#330000000
1&
#332000000
0&
#334000000
1&
#336000000
0&
#338000000
1&
#340000000
0&
#342000000
1&
#344000000
0&
#346000000
1&
#348000000
0&
#350000000
1&
#352000000
0&
#354000000
1&
#356000000
0&
#358000000
1&
#360000000
0&
#362000000
1&
#364000000
0&
#366000000
1&
#368000000
0&
#370000000
1&
#372000000
0&
#374000000
1&
#376000000
0&
#378000000
1&
#380000000
0&
#382000000
1&
#384000000
0&
#386000000
1&
#388000000
0&
#390000000
1&
#392000000
0&
#394000000
1&
#396000000
0&
#398000000
1&
#400000000
0&
#402000000
1&
#404000000
0&
#406000000
1&
#408000000
0&
#410000000
1&
#412000000
0&
#414000000
1&
#416000000
0&
#418000000
1&
#420000000
0&
#422000000
1&
#424000000
0&
#426000000
1&
#428000000
0&
#430000000
1&
#432000000
0&
#434000000
1&
#436000000
0&
#438000000
1&
#440000000
0&
#442000000
1&
#444000000
0&
#446000000
1&
#448000000
0&
#450000000
1&
#452000000
0&
#454000000
1&
#456000000
0&
#458000000
1&
#460000000
0&
#462000000
1&
#464000000
0&
#466000000
1&
#468000000
0&
#470000000
1&
#472000000
0&
#474000000
1&
#476000000
0&
#478000000
1&
#480000000
0&
#482000000
1&
#484000000
0&
#486000000
1&
#488000000
0&
#490000000
1&
#492000000
0&
#494000000
1&
#496000000
0&
#498000000
1&
#500000000
0&
0*
#502000000
1&
#504000000
0&
#506000000
1&
#508000000
0&
#510000000
1&
#512000000
0&
#514000000
1&
#516000000
0&
#518000000
1&
#520000000
0&
#522000000
1&
#524000000
0&
#526000000
1&
#528000000
0&
#530000000
1&
#532000000
0&
#534000000
1&
#536000000
0&
#538000000
1&
#540000000
0&
#542000000
1&
#544000000
0&
#546000000
1&
#548000000
0&
#550000000
1&
#552000000
0&
#554000000
1&
#556000000
0&
#558000000
1&
#560000000
0&
#562000000
1&
#564000000
0&
#566000000
1&
#568000000
0&
#570000000
1&
#572000000
0&
#574000000
1&
#576000000
0&
#578000000
1&
#580000000
0&
#582000000
1&
#584000000
0&
#586000000
1&
#588000000
0&
#590000000
1&
#592000000
0&
#594000000
1&
#596000000
0&
#598000000
1&
#600000000
0&
#602000000
1&
#604000000
0&
#606000000
1&
#608000000
0&
#610000000
1&
#612000000
0&
#614000000
1&
#616000000
0&
#618000000
1&
#620000000
0&
#622000000
1&
#624000000
0&
#626000000
1&
#628000000
0&
#630000000
1&
#632000000
0&
#634000000
1&
#636000000
0&
#638000000
1&
#640000000
0&
#642000000
1&
#644000000
0&
#646000000
1&
#648000000
0&
#650000000
1&
#652000000
0&
#654000000
1&
#656000000
0&
#658000000
1&
#660000000
0&
#662000000
1&
#664000000
0&
#666000000
1&
#668000000
0&
#670000000
1&
#672000000
0&
#674000000
1&
#676000000
0&
#678000000
1&
#680000000
0&
#682000000
1&
#684000000
0&
#686000000
1&
#688000000
0&
#690000000
1&
#692000000
0&
#694000000
1&
#696000000
0&
#698000000
1&
#700000000
0&
#702000000
1&
#704000000
0&
#706000000
1&
#708000000
0&
#710000000
1&
#712000000
0&
#714000000
1&
#716000000
0&
#718000000
1&
#720000000
0&
#722000000
1&
#724000000
0&
#726000000
1&
#728000000
0&
#730000000
1&
#732000000
0&
#734000000
1&
#736000000
0&
#738000000
1&
#740000000
0&
#742000000
1&
#744000000
0&
#746000000
1&
#748000000
0&
#750000000
0F
1&
1*
#751000000
b1 5
14
b1 6
1+
b0 .
#752000000
0&
#754000000
1&
#756000000
0&
#758000000
1&
#760000000
0&
#762000000
1&
#764000000
0&
#766000000
1&
#768000000
0&
#770000000
1&
#772000000
0&
#774000000
1&
#776000000
0&
#778000000
1&
#780000000
0&
#782000000
1&
#784000000
0&
#786000000
1&
#788000000
0&
#790000000
1&
#792000000
0&
#794000000
1&
#796000000
0&
#798000000
1&
#800000000
0&
#802000000
1&
#804000000
0&
#806000000
1&
#808000000
0&
#810000000
1&
#812000000
0&
#814000000
1&
#816000000
0&
#818000000
1&
#820000000
0&
#822000000
1&
#824000000
0&
#826000000
1&
#828000000
0&
#830000000
1&
#832000000
0&
#834000000
1&
#836000000
0&
#838000000
1&
#840000000
0&
#842000000
1&
#844000000
0&
#846000000
1&
#848000000
0&
#850000000
1&
#852000000
0&
#854000000
1&
#856000000
0&
#858000000
1&
#860000000
0&
#862000000
1&
#864000000
0&
#866000000
1&
#868000000
0&
#870000000
1&
#872000000
0&
#874000000
1&
#876000000
0&
#878000000
1&
#880000000
0&
#882000000
1&
#884000000
0&
#886000000
1&
#888000000
0&
#890000000
1&
#892000000
0&
#894000000
1&
#896000000
0&
#898000000
1&
#900000000
0&
#902000000
1&
#904000000
0&
#906000000
1&
#908000000
0&
#910000000
1&
#912000000
0&
#914000000
1&
#916000000
0&
#918000000
1&
#920000000
0&
#922000000
1&
#924000000
0&
#926000000
1&
#928000000
0&
#930000000
1&
#932000000
0&
#934000000
1&
#936000000
0&
#938000000
1&
#940000000
0&
#942000000
1&
#944000000
0&
#946000000
1&
#948000000
0&
#950000000
1&
#952000000
0&
#954000000
1&
#956000000
0&
#958000000
1&
#960000000
0&
#962000000
1&
#964000000
0&
#966000000
1&
#968000000
0&
#970000000
1&
#972000000
0&
#974000000
1&
#976000000
0&
#978000000
1&
#980000000
0&
#982000000
1&
#984000000
0&
#986000000
1&
#988000000
0&
#990000000
1&
#992000000
0&
#994000000
1&
#996000000
0&
#998000000
1&
#1000000000
0&
0*
#1002000000
1&
#1004000000
0&
#1006000000
1&
#1008000000
0&
#1010000000
1&
#1012000000
0&
#1014000000
1&
#1016000000
0&
#1018000000
1&
#1020000000
0&
#1022000000
1&
#1024000000
0&
#1026000000
1&
#1028000000
0&
#1030000000
1&
#1032000000
0&
#1034000000
1&
#1036000000
0&
#1038000000
1&
#1040000000
0&
#1042000000
1&
#1044000000
0&
#1046000000
1&
#1048000000
0&
#1050000000
1&
#1052000000
0&
#1054000000
1&
#1056000000
0&
#1058000000
1&
#1060000000
0&
#1062000000
1&
#1064000000
0&
#1066000000
1&
#1068000000
0&
#1070000000
1&
#1072000000
0&
#1074000000
1&
#1076000000
0&
#1078000000
1&
#1080000000
0&
#1082000000
1&
#1084000000
0&
#1086000000
1&
#1088000000
0&
#1090000000
1&
#1092000000
0&
#1094000000
1&
#1096000000
0&
#1098000000
1&
#1100000000
0&
#1102000000
1&
#1104000000
0&
#1106000000
1&
#1108000000
0&
#1110000000
1&
#1112000000
0&
#1114000000
1&
#1116000000
0&
#1118000000
1&
#1120000000
0&
#1122000000
1&
#1124000000
0&
#1126000000
1&
#1128000000
0&
#1130000000
1&
#1132000000
0&
#1134000000
1&
#1136000000
0&
#1138000000
1&
#1140000000
0&
#1142000000
1&
#1144000000
0&
#1146000000
1&
#1148000000
0&
#1150000000
1&
#1152000000
0&
#1154000000
1&
#1156000000
0&
#1158000000
1&
#1160000000
0&
#1162000000
1&
#1164000000
0&
#1166000000
1&
#1168000000
0&
#1170000000
1&
#1172000000
0&
#1174000000
1&
#1176000000
0&
#1178000000
1&
#1180000000
0&
#1182000000
1&
#1184000000
0&
#1186000000
1&
#1188000000
0&
#1190000000
1&
#1192000000
0&
#1194000000
1&
#1196000000
0&
#1198000000
1&
#1200000000
0&
#1202000000
1&
#1204000000
0&
#1206000000
1&
#1208000000
0&
#1210000000
1&
#1212000000
0&
#1214000000
1&
#1216000000
0&
#1218000000
1&
#1220000000
0&
#1222000000
1&
#1224000000
0&
#1226000000
1&
#1228000000
0&
#1230000000
1&
#1232000000
0&
#1234000000
1&
#1236000000
0&
#1238000000
1&
#1240000000
0&
#1242000000
1&
#1244000000
0&
#1246000000
1&
#1248000000
0&
#1250000000
b11 5
b1 B
b10 6
b1 A
1&
1*
#1251000000
b1 $
b1 0
b1 .
#1252000000
0&
#1254000000
b1 C
1&
#1256000000
0&
#1258000000
09
b1 D
1&
#1260000000
0&
#1262000000
0"
1&
